{
  "nats": {
    "address": "nats://off.bahasakita.co.id:4222"
  },
  "logging": {
    "output_paths": [
      "/media/dvtrdw/Data/Go/src/Ridwan/OSSBSS_api_dummy/log/endpoint/",
      "stdout"
    ],
    "error_output_paths": [
      "/media/dvtrdw/Data/Go/src/Ridwan/OSSBSS_api_dummy/log/endpoint/",
      "stderr"
    ]
  },
  "topic": {
    "rest_base_url": "app/console",
    "nats_base_url": "app.console",
    "environtment_status": "dev",
    "channel": {
      "post": [
        {
          "login": {
            "rest_path": "user/login/",
            "nats_path": "user.login"
          },
          "register": {
            "rest_path": "user/register/",
            "nats_path": "user.register"
          },
          "change_pass": {
            "rest_path": "user/changepass/",
            "nats_path": "user.changepass"
          },
          "reset_pass": {
            "rest_path": "user/reset/",
            "nats_path": "user.reset"
          },
          "add_depts": {
            "rest_path": "department/add/",
            "nats_path": "department.add"
          },
          "detail_depts": {
            "rest_path": "department/detail/",
            "nats_path": "department.detail"
          },
          "edit_depts": {
            "rest_path": "department/edit/",
            "nats_path": "department.edit"
          },
          "delete_depts": {
            "rest_path": "department/delete/",
            "nats_path": "department.delete"
          },
          "userpackage_list": {
            "rest_path": "userpackage/list/",
            "nats_path": "userpackage.list"
          },
          "userpackage_detail": {
            "rest_path": "userpackage/detail/",
            "nats_path": "userpackage.detail"
          },
          "userpackage_history": {
            "rest_path": "userpackage/usagehistory/",
            "nats_path": "userpackage.usagehistory"
          },
          "tutorial_list": {
            "rest_path": "tutorial/list/",
            "nats_path": "tutorial.list"
          }
        }
      ],
      "get": [
      ]
    }
  },
  "timeout": 8000,
  "port": 8080,
  "cert_dir": "/media/dvtrdw/Data/Go/src/Ridwan/notula_cloud_backend_service/cert/"
}